…
``` {.r}
Asset_Class_Rtns_v1<-Asset_Class_Levels %>% group_by(symbol) %>% tq_transmute(select = PX_LAST, mutate_fun =
periodReturn, period= "quarterly", type = "log",col_rename ="quarterly.returns")
Asset_Class_Rtns_v1<-as.data.frame(Asset_Class_Rtns_v1)


Asset_Class_Rtns_v1%>%group_by(symbol)%>%tq_mutate(mutate_fun =rollapply,width=4,FUN=sum,by.column=FALSE, col_rename=c("Rolling_One_Yr"))
```

    ## # A tibble: 435 x 4
    ## # Groups:   symbol [3]
    ##    symbol          date       quarterly.returns Rolling_One_Yr
    ##    <chr>           <date>                 <dbl>          <dbl>
    ##  1 VWELX US Equity 1979-12-31           0              NA     
    ##  2 VWELX US Equity 1980-03-31          -0.0552         NA     
    ##  3 VWELX US Equity 1980-06-30           0.137          NA     
    ##  4 VWELX US Equity 1980-09-30           0.0318          0.114 
    ##  5 VWELX US Equity 1980-12-31           0.0146          0.128 
    ##  6 VWELX US Equity 1981-03-31           0.00863         0.192 
    ##  7 VWELX US Equity 1981-06-30          -0.0125          0.0425
    ##  8 VWELX US Equity 1981-09-30          -0.102          -0.0910
    ##  9 VWELX US Equity 1981-12-31           0.0481         -0.0575
    ## 10 VWELX US Equity 1982-03-31          -0.0417         -0.108 
    ## # ... with 425 more rows
…
indexed_prices$symbol[indexed_prices$symbol=='Stocks']<-"Large Cap Stocks"
indexed_prices$symbol[indexed_prices$symbol=='RTY Index']<-"Small Cap Stocks"
indexed_prices$symbol[indexed_prices$symbol=='CPI INDX Index']<-"Inflation"
indexed_prices$symbol[indexed_prices$symbol=='LBUSTRUU INDEX']<-"Bonds"



Asset_growth_plot<-ggplot(indexed_prices,aes(x=date,y=Price_index,color=symbol))+geom_line()+ggtitle("Growth of  ten dollars: 1980-2015")+ylab("")
```

``` {.r}
Asset_Class_Rtns%>%group_by(symbol)%>%tq_mutate(mutate_fun =rollapply,width=4,FUN=sum,by.column=FALSE, col_rename=c("Rolling_One_Yr"))
```

    ## # A tibble: 580 x 4
    ## # Groups:   symbol [4]
    ##    symbol         date       quarterly.returns Rolling_One_Yr
    ##    <chr>          <date>                 <dbl>          <dbl>
    ##  1 LBUSTRUU INDEX 1979-12-31           0              NA     
    ##  2 LBUSTRUU INDEX 1980-03-31          -0.0911         NA     
    ##  3 LBUSTRUU INDEX 1980-06-30           0.172          NA     
    ##  4 LBUSTRUU INDEX 1980-09-30          -0.0679          0.0132
    ##  5 LBUSTRUU INDEX 1980-12-31           0.0135          0.0267
    ##  6 LBUSTRUU INDEX 1981-03-31           0.00481         0.123 
    ##  7 LBUSTRUU INDEX 1981-06-30          -0.00331        -0.0528
    ##  8 LBUSTRUU INDEX 1981-09-30          -0.0414         -0.0264
    ##  9 LBUSTRUU INDEX 1981-12-31           0.101           0.0606
    ## 10 LBUSTRUU INDEX 1982-03-31           0.0383          0.0941
    ## # ... with 570 more rows
…
